[
  {
    "model": "workouts.exercise",
    "pk": 1,
    "fields": {
      "name": "Push-up",
      "description": "A push-up (or press-up in British English) is a common calisthenics exercise beginning from the prone position.",
      "unit": "reps"
    }
  },
  {
    "model": "workouts.exercise",
    "pk": 2,
    "fields": {
      "name": "Crunch",
      "description": "The crunch is one of the most popular abdominal exercises.",
      "unit": "reps"
    }
  },
  {
    "model": "workouts.exercise",
    "pk": 3,
    "fields": {
      "name": "Plank",
      "description": "The plank is an isometric core strength exercise that involves maintaining a position similar to a push-up for the maximum possible time.",
      "unit": "seconds"
    }
  },
  {
    "model": "workouts.favorite",
    "pk": 1,
    "fields": {
      "user": 2,
      "exercise": 3
    }
  },
  {
    "model": "users.user",
    "pk": 2,
    "fields": {
      "username": "a",
      "email": "a@a.no",
      "password": "pbkdf2_sha256$216000$Oxe47dNXScQk$NPqdT9zW41E+X973gp61mPUCJTtNeN3wqE/fbo5cVk4=",
      "first_name": "a",
      "last_name": "a",
      "is_active": "True"
    }
  },
  {
    "model": "users.user",
    "pk": 3,
    "fields": {
      "username": "b",
      "email": "b@b.no",
      "password": "pbkdf2_sha256$216000$BYKq3uDbCKqV$KzdibNmipjTKsrYUNiNnNpSymbpyHV2+wVbCLQ0Ahew=",
      "first_name": "b",
      "last_name": "b",
      "is_active": "True"
    }
  },
  {
    "model": "workouts.workout",
    "pk": 1,
    "fields": {
      "name": "a workout",
      "date": "2021-02-05T11:54:05+00:00",
      "notes": "notes on a's workout. Spinning, bicep curls.",
      "owner": 2,
      "visibility": "PU"
    }
  },
  {
    "model": "workouts.workout",
    "pk": 2,
    "fields": {
      "name": "b workout",
      "date": "2021-03-05T11:54:05+00:00",
      "notes": "notes on b's workout. Deadlifts, benchpress.",
      "owner": 3,
      "visibility": "PU"
    }
  },
  {
    "model": "workouts.exerciseinstance",
    "pk": 1,
    "fields": {
      "workout": 1,
      "exercise": 1,
      "sets": 2,
      "number": 10
    }
  },
  {
    "model": "workouts.exerciseinstance",
    "pk": 2,
    "fields": {
      "workout": 2,
      "exercise": 2,
      "sets": 3,
      "number": 25
    }
  },
  {
    "model": "users.user",
    "pk": 4,
    "fields": {
      "password": "pbkdf2_sha256$216000$wk3xDeBmx5G2$4GuPkzmQ8v8oHcJRk6ApyD4AHqkC/6NJS7ak4060ImI=",
      "last_login": null,
      "is_superuser": false,
      "username": "athlete1",
      "first_name": "",
      "last_name": "",
      "email": "athlete1@athlete1.no",
      "is_staff": false,
      "is_active": true,
      "date_joined": "2021-03-14T12:29:06.682Z",
      "coach": 5,
      "phone_number": "",
      "country": "",
      "city": "",
      "street_address": "",
      "groups": [],
      "user_permissions": []
    }
  },
  {
    "model": "users.user",
    "pk": 5,
    "fields": {
      "password": "pbkdf2_sha256$216000$Qlqxy6odw256$7nsEtMbd0ltuZv4dQBPO62Sl4PCAXYoxyDjgPYEtk8g=",
      "last_login": null,
      "is_superuser": false,
      "username": "coach1",
      "first_name": "",
      "last_name": "",
      "email": "coach1@coach1.no",
      "is_staff": false,
      "is_active": true,
      "date_joined": "2021-03-14T12:29:28.359Z",
      "coach": null,
      "phone_number": "",
      "country": "",
      "city": "",
      "street_address": "",
      "groups": [],
      "user_permissions": []
    }
  }
]